{
  "definitions": {},
  "$schema": "http://json-schema.org/draft-06/schema#",
  "$id": "http://example.com/example.json",
  "type": "object",
  "properties": {
    "serviceName": {
      "$id": "/properties/serviceName",
      "type": "string",
      "title": "The Servicename Schema.",
      "description": "An explanation about the purpose of this instance.",
      "default": "",
      "examples": [
        "service"
      ]
    },
    "procedure": {
      "$id": "/properties/procedure",
      "type": "string",
      "title": "The Procedure Schema.",
      "description": "An explanation about the purpose of this instance.",
      "default": "",
      "examples": [
        "dsaghgfdfrsgf454"
      ]
    }
  },
  "required": [
    "serviceName",
    "procedure"
  ]
}